{
  "fingerprint": "5820cc899092d336d24c75ce439807f6",
  "config": {
    "minOpacity": 0.01,
    "maxOpacity": 0.7,
    "radius": 1
  },
  "min": 0,
  "max": 1,
  "pages": [
    {
      "id": 1,
      "points": [
        {
          "x": 0.25,
          "y": 0.32,
          "w": 1
        },
        {
          "x": 0.51,
          "y": 0.335,
          "w": 1
        },
        {
          "x": 0.15,
          "y": 0.11,
          "w": 1
        },
        {
          "x": 0.22,
          "y": 0.13,
          "w": 1
        },
        {
          "x": 0.71,
          "y": 0.35,
          "w": 1
        }
      ]
    },
    {
      "id": 2,
      "min": 0,
      "max": 2,
      "points": [
        {
          "x": 0.3,
          "y": 0.21,
          "w": 1
        },
        {
          "x": 0.33,
          "y": 0.21,
          "w": 1
        },
        {
          "x": 0.315,
          "y": 0.25,
          "w": 1
        },
        {
          "x": 0.4,
          "y": 0.3,
          "w": 1
        }
      ]
    },
    {
      "id": 3,
      "min": 0,
      "max": 1,
      "config": {
        "gradient": {
          "0.0": "#098066",
          "1.0": "#ffff77"
        },
        "maxOpacity": 0.55
      },
      "points": [
        {
          "x": 0.24,
          "y": 0.2,
          "w": 1
        },
        {
          "x": 0.62,
          "y": 0.2,
          "w": 1
        },
        {
          "x": 0.35,
          "y": 0.3,
          "w": 1
        },
        {
          "x": 0.55,
          "y": 0.3,
          "w": 1
        },
        {
          "x": 0.43,
          "y": 0.37,
          "w": 1
        }
      ]
    },
    {
      "id": 9,
      "min": 0,
      "max": 1,
      "config": {
        "opacity": 1.0
      },
      "points": [
        {
          "x": 0.0,
          "y": 0.0,
          "w": 1
        },
        {
          "x": 0.5,
          "y": 0.5,
          "w": 1
        },
        {
          "x": 1.0,
          "y": 0.0,
          "w": 1
        },
        {
          "x": 0.0,
          "y": 1.0,
          "w": 1
        },
        {
          "x": 1.0,
          "y": 1.0,
          "w": 1
        }
      ]
    }
  ]
}